ART FROM CODE - TILES AND TESSELATIONS
…
I’m not going to explain the inner workings of this function here (because they’re already discussed elsewhere), but in case you need a refresher or haven’t read the relevant page, here’s a look at the kinds of data this function produces, and a scatterplot showing the very non-random spatial patterns it generates:

set.seed(1)
dat <- unboxy(iterations = 1000, layers = 5) 

dat
ggplot(dat, aes(x, y)) + 
  geom_point(colour = "white", show.legend = FALSE) +
  coord_equal(xlim = c(-2.5, 2.5), ylim = c(-2.5, 2.5)) + 
  theme_void()

# A tibble: 1,001 × 3
         x       y     val
     <dbl>   <dbl>   <dbl>
 1  0.579  -0.953  -0.0455
 2  0.236   1.93    0.427 
 3  0.666   0.962   1.32  
 4 -1.95    1.07    1.65  
 5  0.935   0.643   0.670 
 6 -0.0757  2.51    1.85  
 7 -0.884  -0.0703  1.36  
 8  1.09    0.233   0.158 
 9  0.672  -0.966  -0.421 
10 -0.929  -0.227  -0.539 
# … with 991 more rows
…
