ART FROM CODE - PIXEL FILTERS WITH GGFX
…
sample_canva2 <- function(seed = NULL, n = 4) {
  if(!is.null(seed)) set.seed(seed)
  sample(ggthemes::canva_palettes, 1)[[1]] |>
    (\(x) colorRampPalette(x)(n))()  
}

tree <- flametree_grow(seed = 1, time = 8, angle = c(-15, 15, 30))
tree

# A tibble: 1,533 × 12
   coord_x coord_y id_tree id_time id_path id_leaf id_pathtree id_step seg_deg
     <dbl>   <dbl>   <int>   <int>   <int> <lgl>   <chr>         <int>   <dbl>
 1  -0.839    0          1       1       1 FALSE   1_1               0      90
 2  -0.839    0.5        1       1       1 FALSE   1_1               1      90
 3  -0.839    1          1       1       1 FALSE   1_1               2      90
 4  -0.839    1          1       2       2 FALSE   1_2               0      75
 5  -0.839    1.45       1       2       2 FALSE   1_2               1      75
 6  -0.606    1.87       1       2       2 FALSE   1_2               2      75
 7  -0.839    1          1       2       3 FALSE   1_3               0      75
 8  -0.839    1.3        1       2       3 FALSE   1_3               1      75
 9  -0.683    1.58       1       2       3 FALSE   1_3               2      75
10  -0.606    1.87       1       3       4 FALSE   1_4               0     105
# … with 1,523 more rows, and 3 more variables: seg_len <dbl>, seg_col <dbl>,
#   seg_wid <dbl>
…
